snippet-map-14e4db57e4912b98e2d28b40bcde9d8e.ly
0d/lily-5f3b0c42.ly
1c/lily-67002d60.ly
2e/lily-c104eac3.ly
40/lily-345ea193.ly
4c/lily-98d2c8e3.ly
50/lily-ca557215.ly
65/lily-18ace5aa.ly
69/lily-ecfd2b6c.ly
96/lily-52e54956.ly
99/lily-344eac38.ly
cf/lily-4fa567b9.ly