

#(define version-seen #t)
#(define output-empty-score-list #f)
#(ly:add-file-name-alist '(
("8f/lily-b23b0ab6.ly" . "Davide_Tedesco-Studio_sul_Corpo_dOmbra_Numero_1_completa.lytex")
("a4/lily-f0df7201.ly" . "Davide_Tedesco-Studio_sul_Corpo_dOmbra_Numero_1_completa.lytex")
))
