

#(define version-seen #t)
#(define output-empty-score-list #f)
#(ly:add-file-name-alist '(
("2a/lily-a6deccd3.ly" . "Davide_Tedesco-Studio_sul_Corpo_dOmbra_Numero_1_completa.lytex")
("91/lily-5fb98650.ly" . "Davide_Tedesco-Studio_sul_Corpo_dOmbra_Numero_1_completa.lytex")
))
