

#(define version-seen #t)
#(define output-empty-score-list #f)
#(ly:add-file-name-alist '(
("3a/lily-65aac9f1.ly" . "Davide_Tedesco-Studio_sul_Corpo_dOmbra_Numero_1_completa.lytex")
("86/lily-6e6931f1.ly" . "Davide_Tedesco-Studio_sul_Corpo_dOmbra_Numero_1_completa.lytex")
("d9/lily-36dbb7b8.ly" . "Davide_Tedesco-Studio_sul_Corpo_dOmbra_Numero_1_completa.lytex")
))
