%% Generated by lilypond-book
%% Options: [fragment,indent=0\mm,line-width=513\pt,quote,relative=2,staffsize=16]
\include "lilypond-book-preamble.ly"


% ****************************************************************
% Start cut-&-pastable-section
% ****************************************************************

#(set-global-staff-size 16)

\paper {
  indent = 0\mm
  line-width = 513\pt
  % offset the left padding, also add 1mm as lilypond creates cropped
  % images with a little space on the right
  line-width = #(- line-width (* mm  3.000000) (* mm 1))
  line-width = 513\pt - 2.0 * 0.4\in
  % offset the left padding, also add 1mm as lilypond creates cropped
  % images with a little space on the right
  line-width = #(- line-width (* mm  3.000000) (* mm 1))
}

\layout {
  
}



\relative c''
{


% ****************************************************************
% ly snippet contents follows:
% ****************************************************************
\sourcefileline 622

	
\version "2.22.2"

 \new Staff \with{       \hide Staff.BarLine \hide Clef
} {
\time 7/4
\override Staff.StaffSymbol.line-count = #1 %a che serve? 
     \hide Clef
      \override TimeSignature.font-size = #6
       \numericTimeSignature

     s1^\markup{\huge \circle{1}}    
}




% ****************************************************************
% end ly snippet
% ****************************************************************
}
