%% Generated by lilypond-book
%% Options: [fragment,indent=0\mm,line-width=513\pt,quote,relative=2,staffsize=16]
\include "lilypond-book-preamble.ly"


% ****************************************************************
% Start cut-&-pastable-section
% ****************************************************************

#(set-global-staff-size 16)

\paper {
  indent = 0\mm
  line-width = 513\pt
  % offset the left padding, also add 1mm as lilypond creates cropped
  % images with a little space on the right
  line-width = #(- line-width (* mm  3.000000) (* mm 1))
  line-width = 513\pt - 2.0 * 0.4\in
  % offset the left padding, also add 1mm as lilypond creates cropped
  % images with a little space on the right
  line-width = #(- line-width (* mm  3.000000) (* mm 1))
}

\layout {
  
}



\relative c''
{


% ****************************************************************
% ly snippet contents follows:
% ****************************************************************
\sourcefileline 317

	
\version "2.22.2"
 \new Staff \with{ \remove Time_signature_engraver       \remove Clef_engraver \hide Staff.BarLine
} {
b,1^\markup {

               
                 
                \override #'(thickness . 2)
                  \translate#'(1 . 0)\overlay {
      \draw-circle #0.5 #0.2 ##f
      
         \translate #'(1 . 0)\draw-line #'(14 . 0)
       
          \translate #'(16 . 0)\arrow-head #X #RIGHT ##t
      \translate #'(17 . 0)\draw-circle #0.5 #0.2 ##t

                  }

  }
}



% ****************************************************************
% end ly snippet
% ****************************************************************
}
