snippet-map-8a5647299930198dfb7b8581129e683a.ly
0d/lily-5f3b0c42.ly
1c/lily-67002d60.ly
2e/lily-c104eac3.ly
40/lily-345ea193.ly
4c/lily-98d2c8e3.ly
50/lily-ca557215.ly
69/lily-ecfd2b6c.ly
96/lily-52e54956.ly
99/lily-344eac38.ly
a9/lily-c3f1762e.ly
cf/lily-4fa567b9.ly