

#(define version-seen #t)
#(define output-empty-score-list #f)
#(ly:add-file-name-alist '(
("0d/lily-5f3b0c42.ly" . "Davide_Tedesco-Studio_sul_Corpo_dOmbra_Numero_1_completa_trasposti.lytex")
("1c/lily-67002d60.ly" . "Davide_Tedesco-Studio_sul_Corpo_dOmbra_Numero_1_completa_trasposti.lytex")
("2a/lily-a6deccd3.ly" . "Davide_Tedesco-Studio_sul_Corpo_dOmbra_Numero_1_completa_trasposti.lytex")
("2e/lily-c104eac3.ly" . "Davide_Tedesco-Studio_sul_Corpo_dOmbra_Numero_1_completa_trasposti.lytex")
("3a/lily-65aac9f1.ly" . "Davide_Tedesco-Studio_sul_Corpo_dOmbra_Numero_1_completa_trasposti.lytex")
("40/lily-345ea193.ly" . "Davide_Tedesco-Studio_sul_Corpo_dOmbra_Numero_1_completa_trasposti.lytex")
("4c/lily-98d2c8e3.ly" . "Davide_Tedesco-Studio_sul_Corpo_dOmbra_Numero_1_completa_trasposti.lytex")
("50/lily-ca557215.ly" . "Davide_Tedesco-Studio_sul_Corpo_dOmbra_Numero_1_completa_trasposti.lytex")
("69/lily-ecfd2b6c.ly" . "Davide_Tedesco-Studio_sul_Corpo_dOmbra_Numero_1_completa_trasposti.lytex")
("7a/lily-c2063772.ly" . "Davide_Tedesco-Studio_sul_Corpo_dOmbra_Numero_1_completa_trasposti.lytex")
("96/lily-52e54956.ly" . "Davide_Tedesco-Studio_sul_Corpo_dOmbra_Numero_1_completa_trasposti.lytex")
("99/lily-344eac38.ly" . "Davide_Tedesco-Studio_sul_Corpo_dOmbra_Numero_1_completa_trasposti.lytex")
("a6/lily-3d8b4813.ly" . "Davide_Tedesco-Studio_sul_Corpo_dOmbra_Numero_1_completa_trasposti.lytex")
("a9/lily-c3f1762e.ly" . "Davide_Tedesco-Studio_sul_Corpo_dOmbra_Numero_1_completa_trasposti.lytex")
("cf/lily-4fa567b9.ly" . "Davide_Tedesco-Studio_sul_Corpo_dOmbra_Numero_1_completa_trasposti.lytex")
))
